<?xml version="1.0" encoding="UTF-8" standalone="no"?>
<!-- Created with Inkscape (http://www.inkscape.org/) -->

<svg
   xmlns:osb="http://www.openswatchbook.org/uri/2009/osb"
   xmlns:dc="http://purl.org/dc/elements/1.1/"
   xmlns:cc="http://creativecommons.org/ns#"
   xmlns:rdf="http://www.w3.org/1999/02/22-rdf-syntax-ns#"
   xmlns:svg="http://www.w3.org/2000/svg"
   xmlns="http://www.w3.org/2000/svg"
   xmlns:xlink="http://www.w3.org/1999/xlink"
   xmlns:sodipodi="http://sodipodi.sourceforge.net/DTD/sodipodi-0.dtd"
   xmlns:inkscape="http://www.inkscape.org/namespaces/inkscape"
   width="200"
   height="150"
   viewBox="0 0 199.99999 149.99999"
   id="svg2"
   version="1.1"
   inkscape:version="0.91 r13725"
   sodipodi:docname="icon.svg"
   style="enable-background:new"
   inkscape:export-filename="/home/nicholas/temp/sulphide_icon/icon.png"
   inkscape:export-xdpi="90"
   inkscape:export-ydpi="90">
  <defs
     id="defs4">
    <linearGradient
       id="linearGradient4156"
       osb:paint="solid">
      <stop
         style="stop-color:#000000;stop-opacity:1;"
         offset="0"
         id="stop4158" />
    </linearGradient>
    <linearGradient
       id="linearGradient4157"
       osb:paint="solid"
       gradientTransform="translate(0,852.36222)">
      <stop
         style="stop-color:#215c72;stop-opacity:1;"
         offset="0"
         id="stop4159" />
    </linearGradient>
    <linearGradient
       inkscape:collect="always"
       xlink:href="#linearGradient4157"
       id="linearGradient4212"
       x1="3.5355339"
       y1="973.57031"
       x2="123.74369"
       y2="973.57031"
       gradientUnits="userSpaceOnUse"
       gradientTransform="translate(8.4742569,6.6018854)" />
    <linearGradient
       inkscape:collect="always"
       xlink:href="#linearGradient4157"
       id="linearGradient4302"
       x1="199.95357"
       y1="777.46606"
       x2="216.02235"
       y2="777.46606"
       gradientUnits="userSpaceOnUse"
       gradientTransform="translate(-142.85713,159.99998)" />
    <linearGradient
       inkscape:collect="always"
       xlink:href="#linearGradient4157"
       id="linearGradient4308"
       x1="199.75452"
       y1="776.94019"
       x2="230.13542"
       y2="776.94019"
       gradientUnits="userSpaceOnUse"
       gradientTransform="translate(-142.85713,159.99998)" />
    <linearGradient
       inkscape:collect="always"
       xlink:href="#linearGradient4157"
       id="linearGradient4245"
       x1="179.82143"
       y1="501.6972"
       x2="251.07143"
       y2="501.6972"
       gradientUnits="userSpaceOnUse"
       gradientTransform="translate(-142.85721,-398.66029)" />
    <linearGradient
       inkscape:collect="always"
       xlink:href="#linearGradient4157"
       id="linearGradient4259"
       x1="176.25502"
       y1="504.77039"
       x2="184.65178"
       y2="504.77039"
       gradientUnits="userSpaceOnUse"
       gradientTransform="translate(-142.85713,503.70072)" />
    <linearGradient
       inkscape:collect="always"
       xlink:href="#linearGradient4157"
       id="linearGradient4273"
       x1="246.17464"
       y1="505.10254"
       x2="253.67404"
       y2="505.10254"
       gradientUnits="userSpaceOnUse"
       gradientTransform="translate(-142.85713,503.70072)" />
    <linearGradient
       inkscape:collect="always"
       xlink:href="#linearGradient4157"
       id="linearGradient4160"
       x1="148.21429"
       y1="931.64655"
       x2="188.21429"
       y2="931.64655"
       gradientUnits="userSpaceOnUse"
       gradientTransform="translate(-1.4285713,-13.214284)" />
  </defs>
  <sodipodi:namedview
     id="base"
     pagecolor="#ffffff"
     bordercolor="#666666"
     borderopacity="1.0"
     inkscape:pageopacity="0"
     inkscape:pageshadow="2"
     inkscape:zoom="2.8"
     inkscape:cx="-66.665605"
     inkscape:cy="47.056505"
     inkscape:document-units="px"
     inkscape:current-layer="layer1"
     showgrid="false"
     inkscape:window-width="1366"
     inkscape:window-height="701"
     inkscape:window-x="0"
     inkscape:window-y="27"
     inkscape:window-maximized="1"
     units="px"
     showborder="true" />
  <metadata
     id="metadata7">
    <rdf:RDF>
      <cc:Work
         rdf:about="">
        <dc:format>image/svg+xml</dc:format>
        <dc:type
           rdf:resource="http://purl.org/dc/dcmitype/StillImage" />
        <dc:title></dc:title>
        <cc:license
           rdf:resource="" />
      </cc:Work>
    </rdf:RDF>
  </metadata>
  <g
     inkscape:label="Layer 1"
     inkscape:groupmode="layer"
     id="layer1"
     transform="translate(0,-902.36081)"
     style="display:inline">
    <circle
       style="opacity:1;fill:none;fill-opacity:0.25362321;fill-rule:nonzero;stroke:url(#linearGradient4212);stroke-width:6;stroke-miterlimit:4;stroke-dasharray:none"
       id="path4206"
       cx="72.113861"
       cy="980.17218"
       r="62.124382" />
    <path
       style="opacity:1;fill:url(#linearGradient4308);fill-opacity:1;fill-rule:evenodd;stroke:url(#linearGradient4302);stroke-width:1px;stroke-linecap:butt;stroke-linejoin:miter;stroke-opacity:1"
       d="m 72.969595,927.68859 c 2.06492,6.50472 6.05524,-0.25978 13.60415,21.27634 l -28.97873,0.0631 c 7.28678,-21.52777 11.75479,-14.8794 14.07994,-21.33947 0,0 0.61977,-1.81963 1.29464,3e-5 z"
       id="path4296"
       inkscape:connector-curvature="0"
       sodipodi:nodetypes="ccccc" />
    <path
       style="display:inline;fill:url(#linearGradient4259);fill-opacity:1;fill-rule:evenodd;stroke:none;stroke-width:1px;stroke-linecap:butt;stroke-linejoin:miter;stroke-opacity:1"
       d="m 39.279665,1003.8606 -4.91815,8.9333 8.180137,-0.2971 z"
       id="path4253"
       inkscape:connector-curvature="0"
       sodipodi:nodetypes="cccc"
       inkscape:export-xdpi="2200.4519"
       inkscape:export-ydpi="2200.4519" />
    <path
       style="display:inline;fill:url(#linearGradient4273);fill-opacity:1;fill-rule:evenodd;stroke:none;stroke-width:1px;stroke-linecap:butt;stroke-linejoin:miter;stroke-opacity:1"
       d="m 105.70142,1004.1176 c 0.13392,0.7366 4.25395,8.1776 4.25395,8.1776 l -8.17719,0.01 z"
       id="path4261"
       inkscape:connector-curvature="0"
       sodipodi:nodetypes="cccc" />
    <path
       style="display:inline;fill:url(#linearGradient4245);fill-opacity:1;fill-rule:evenodd;stroke:none;stroke-width:1px;stroke-linecap:butt;stroke-linejoin:miter;stroke-opacity:1"
       d="M 71.615234 43.097656 C 37.390118 43.024956 37.097656 86.027344 37.097656 86.027344 C 37.097656 86.027344 36.514049 106.77732 43.099609 113.39062 C 47.908522 118.21976 55.12927 119.48463 62.388672 119.83594 C 58.861032 118.03583 55.114855 115.19469 52.246094 110.68164 L 52.111328 110.4707 L 52.199219 110.23633 C 52.199219 110.23633 52.652323 109.07146 53.582031 107.23438 C 52.484673 108.03401 51.292252 108.5 50.019531 108.5 C 47.040049 108.5 44.465169 106.06304 42.650391 102.33984 C 40.835609 98.616549 39.732422 93.533731 39.732422 87.923828 C 39.732422 82.313915 40.835609 77.231035 42.650391 73.507812 C 44.465169 69.784592 47.040049 67.347656 50.019531 67.347656 C 52.999016 67.347656 55.573894 69.784592 57.388672 73.507812 C 59.20345 77.231035 60.304688 82.313915 60.304688 87.923828 C 60.304688 92.026383 59.709864 95.839532 58.683594 99.052734 C 61.982602 94.644263 66.630211 89.774008 72.890625 86.109375 L 73.177734 85.941406 L 73.445312 86.142578 C 79.46657 90.70435 82.935853 94.718408 85.673828 98.630859 C 84.727923 95.506364 84.179688 91.850028 84.179688 87.923828 C 84.179688 82.313917 85.280925 77.231033 87.095703 73.507812 C 88.910481 69.784592 91.485361 67.347656 94.464844 67.347656 C 97.444326 67.347656 100.01921 69.784592 101.83398 73.507812 C 103.64876 77.231033 104.75 82.313917 104.75 87.923828 C 104.75 93.533729 103.64876 98.616543 101.83398 102.33984 C 100.01921 106.06304 97.444326 108.5 94.464844 108.5 C 93.41466 108.5 92.418459 108.18402 91.484375 107.62891 C 91.909846 108.27453 92.32582 108.91661 92.791016 109.57617 L 92.958984 109.81641 L 92.833984 110.08008 C 90.474613 115.00476 86.748402 118.02851 83.169922 119.90625 C 90.055461 119.53831 96.786282 118.20628 101.45312 113.71094 C 108.07605 107.33154 108.22461 86.847656 108.22461 86.847656 C 108.22461 86.847656 108.06959 43.175056 71.615234 43.097656 z M 50.019531 68.347656 C 47.594436 68.347656 45.275832 70.404123 43.548828 73.947266 C 41.821824 77.490416 40.732422 82.445625 40.732422 87.923828 C 40.732422 93.402021 41.821824 98.35729 43.548828 101.90039 C 45.275832 105.44359 47.594436 107.5 50.019531 107.5 C 52.444629 107.5 54.761277 105.44359 56.488281 101.90039 C 58.215285 98.35729 59.304688 93.402021 59.304688 87.923828 C 59.304688 82.445625 58.215285 77.490416 56.488281 73.947266 C 54.761277 70.404123 52.444629 68.347656 50.019531 68.347656 z M 94.464844 68.347656 C 92.039748 68.347656 89.721144 70.404125 87.994141 73.947266 C 86.267136 77.490416 85.179688 82.445627 85.179688 87.923828 C 85.179688 93.402019 86.267136 98.35729 87.994141 101.90039 C 89.721144 105.44359 92.039748 107.5 94.464844 107.5 C 96.889939 107.5 99.20854 105.44359 100.93555 101.90039 C 102.66255 98.35729 103.75 93.402019 103.75 87.923828 C 103.75 82.445627 102.66255 77.490416 100.93555 73.947266 C 99.20854 70.404125 96.889939 68.347656 94.464844 68.347656 z M 73.105469 87.169922 C 59.217005 95.462074 53.523801 109.6366 53.246094 110.3457 C 57.146629 116.34109 62.641321 119.22494 66.871094 120.61914 L 67.517578 120.82812 C 70.749597 121.81088 73.099543 121.91406 73.134766 121.91406 C 73.200382 121.91006 86.239089 121.07095 91.791016 109.87305 C 86.350405 102.07385 84.130908 95.613854 73.105469 87.169922 z "
       transform="translate(0,902.36081)"
       id="path4239" />
    <path
       style="fill:none;fill-rule:evenodd;stroke:url(#linearGradient4160);stroke-width:5.99999905;stroke-linecap:butt;stroke-linejoin:miter;stroke-miterlimit:4;stroke-dasharray:none;stroke-opacity:1"
       d="m 140.00002,918.43224 46.78571,0"
       id="path4153"
       inkscape:connector-curvature="0"
       sodipodi:nodetypes="cc" />
  </g>
</svg>
